{
    "__created_at": 1549736768,
    "__updated_at": 1552655404,
    "data": {
        "tasks": {
            "0": {
                "id": 1,
                "name": "Task 1",
                "status": "DONE"
            },
            "1": {
                "id": 2,
                "name": "Task 2",
                "status": "DOING"
            },
            "3": {
                "id": 4,
                "name": "Task 4",
                "status": "PENDING"
            },
            "4": {
                "id": 6,
                "name": "Task 6",
                "status": "PENDING"
            },
            "5": {
                "id": 7,
                "name": "New Task 7",
                "status": "PENDING"
            },
            "6": {
                "id": 8,
                "name": "Task 8",
                "status": "PENDING"
            },
            "7": {
                "id": 9,
                "name": "Task 9",
                "status": "PENDING"
            },
            "8": {
                "id": 11,
                "name": "Task 11",
                "status": "DOING"
            },
            "10": {
                "id": 14,
                "name": "Digital Nation",
                "status": "DONE"
            },
            "11": {
                "id": 15,
                "name": "done",
                "status": "DOING"
            },
            "13": {
                "id": 17,
                "name": "Unit Task",
                "status": "PENDING"
            },
            "14": {
                "id": 19,
                "name": "ss",
                "status": "PENDING"
            }
        },
        "task_last_id": 19
    }
}